# gen_gaussian() works

    Code
      gen_gaussian(n = 500, p = 4, s = diag(4))
    Message
      v Data generation completed successfully! 🎉
    Output
      # A tibble: 500 x 4
             x1      x2     x3      x4
          <dbl>   <dbl>  <dbl>   <dbl>
       1  1.32  -0.642  -1.29   1.28  
       2  0.378 -0.154  -1.53   0.391 
       3 -0.464  2.98    0.362 -0.0218
       4  0.254 -0.0724 -0.510  0.380 
       5 -0.312  0.341   0.408  0.980 
       6  1.34  -0.997  -0.151 -1.33  
       7  0.348  0.372   0.110  0.136 
       8 -0.879  1.25   -0.196 -0.895 
       9  0.363  0.668   0.271 -0.425 
      10 -0.217  1.00    0.547 -0.877 
      # i 490 more rows
