# gen_longlinear() works

    Code
      gen_longlinear(n = 500, p = 4)
    Message
      v Data generation completed successfully! 🎉
    Output
      # A tibble: 500 x 4
             x1    x2     x3    x4
          <dbl> <dbl>  <dbl> <dbl>
       1 -1913.  242. -1242.  15.1
       2 -1969.  278. -1077.  35.3
       3 -2129.  266. -1116. -10.1
       4 -1887.  257. -1159.  24.1
       5 -1983.  271. -1077.  23.2
       6 -1555.  251. -1256.  37.3
       7 -1866.  278. -1110.  65.6
       8 -1905.  265. -1302.  59.3
       9 -1863.  268. -1111.  64.7
      10 -1894.  233. -1257. -39.6
      # i 490 more rows
