# gen_mobius() works

    Code
      gen_mobius(n = 500, p = 4)
    Message
      v 1 noise dimensions have been generated successfully! 🎉
      v Data generation completed successfully! 🎉
    Output
      # A tibble: 500 x 4
              x1       x2       x3      x4
           <dbl>    <dbl>    <dbl>   <dbl>
       1  0.787  -0.526    0.0162  -0.0495
       2 -0.0601  0.920   -0.0837   0.0573
       3  1.01    0.714    0.0749  -0.0394
       4  0.832  -0.600   -0.00847 -0.0194
       5 -0.590  -0.781    0.0422   0.0367
       6 -0.914   0.370   -0.0722  -0.0465
       7  0.686   0.285   -0.0514  -0.0129
       8 -0.557  -0.787    0.0699   0.0118
       9 -0.427   0.890   -0.0212  -0.0183
      10  0.660  -0.00599  0.00155  0.0315
      # i 490 more rows
