# gen_multicluster() works

    Code
      clust_data
    Output
      # A tibble: 1,000 x 5
            x1     x2       x3     x4 cluster 
         <dbl>  <dbl>    <dbl>  <dbl> <chr>   
       1 1.92   3.90  11.2      6.62  cluster3
       2 2.06   2.70  11.3      5.72  cluster3
       3 3.05   2.71  10.9      5.59  cluster3
       4 3.84   4.42  10.3      7.44  cluster3
       5 4.12   3.22  11.1      6.84  cluster3
       6 0.739 -0.686 -1.02    -0.353 cluster1
       7 5.07   9.03   0.00842 -0.357 cluster2
       8 2.07   3.78   8.24     6.58  cluster3
       9 1.13  -0.161  1.21     0.349 cluster1
      10 3.62   3.33   9.71     6.52  cluster3
      # i 990 more rows
