# gen_quadratic() works

    Code
      gen_quadratic(n = 500)
    Message
      v Data generation completed successfully!!!
    Output
      # A tibble: 500 x 2
              x1      x2
           <dbl>   <dbl>
       1  0.812   0.353 
       2  0.139   0.491 
       3 -0.479  -0.623 
       4 -0.287  -0.0690
       5 -0.804  -1.05  
       6  0.617   0.413 
       7  0.801   0.501 
       8 -0.0689  0.0441
       9  0.294   0.394 
      10  0.118   0.565 
      # i 490 more rows

# gen_cubic() works

    Code
      gen_cubic(n = 500)
    Message
      v Data generation completed successfully!!!
    Output
      # A tibble: 500 x 2
              x1      x2
           <dbl>   <dbl>
       1  1.72   -0.203 
       2  0.709   1.23  
       3 -0.219  -0.0743
       4  0.0699  0.374 
       5 -0.705   0.547 
       6  1.42    0.738 
       7  1.70    0.0116
       8  0.397   0.609 
       9  0.941   1.18  
      10  0.677   1.29  
      # i 490 more rows
