# gen_scurve() works

    Code
      gen_scurve(n = 500)
    Message
      v Data generation completed successfully!!!
    Output
      # A tibble: 500 x 3
             x1    x2      x3
          <dbl> <dbl>   <dbl>
       1 -0.634 0.804 -1.77  
       2  0.610 1.48  -0.207 
       3 -0.773 0.345  1.63  
       4 -0.976 1.20   0.782 
       5  0.602 1.61   1.80  
       6  0.234 0.705 -1.97  
       7 -0.592 1.37  -1.81  
       8 -0.319 0.471  0.0522
       9  0.983 0.744 -0.817 
      10  0.527 1.85  -0.150 
      # i 490 more rows

# gen_scurvehole() works

    Code
      gen_scurvehole(n = 500)
    Message
      v Data generation completed successfully!!!
      v Data generation completed successfully!!!
    Output
      # A tibble: 483 x 3
             x1    x2      x3
          <dbl> <dbl>   <dbl>
       1 -0.634 0.804 -1.77  
       2  0.610 1.48  -0.207 
       3 -0.773 0.345  1.63  
       4 -0.976 1.20   0.782 
       5  0.602 1.61   1.80  
       6  0.234 0.705 -1.97  
       7 -0.592 1.37  -1.81  
       8 -0.319 0.471  0.0522
       9  0.983 0.744 -0.817 
      10  0.527 1.85  -0.150 
      # i 473 more rows
