# gen_swissroll() works

    Code
      gen_swissroll(n = 500, p = 4)
    Message
      v 1 noise dimensions have been generated successfully!!!
      v Data generation completed successfully!!!
    Output
      # A tibble: 500 x 4
             x1     x2     x3      x4
          <dbl>  <dbl>  <dbl>   <dbl>
       1 -5.42   6.60  -0.196 -0.0495
       2  3.27  -4.25   0.485  0.0573
       3 -1.90   1.56  -0.655 -0.0394
       4 -3.28  -0.732  0.200 -0.0194
       5  0.557  0.739  0.614  0.0367
       6  1.78   7.41  -0.295 -0.0465
       7 -5.03   6.84   0.368 -0.0129
       8 -1.40  -4.16  -0.529  0.0118
       9  6.00  -1.12  -0.256 -0.0183
      10  2.78  -4.48   0.846  0.0315
      # i 490 more rows
