# gen_noisedims() works

    Code
      gen_noisedims(n = 500, p = 4, m = c(0, 0, 0, 0), s = c(2, 2, 2, 2))
    Message
      v 4 noise dimensions have been generated successfully!!!
    Output
      # A tibble: 500 x 4
             x1     x2     x3     x4
          <dbl>  <dbl>  <dbl>  <dbl>
       1 -2.64   1.98   2.29  -0.543
       2  1.28  -2.29  -2.56   2.06 
       3  2.58   1.58   2.60  -2.39 
       4 -2.57   0.775 -0.428  4.20 
       5 -0.755 -1.47  -2.52   2.05 
       6  0.308  1.86   2.22   0.980
       7  3.06   0.516  1.25   2.96 
       8 -0.781 -0.472  0.191  1.23 
       9  0.929  0.730  2.60   1.14 
      10 -5.96  -1.26  -2.23   0.355
      # i 490 more rows

# gen_bkgnoise() works

    Code
      gen_bkgnoise(n = 500, p = 4, m = c(0, 0, 0, 0), s = c(2, 2, 2, 2))
    Message
      v Background noise generation completed successfully!!!
    Output
      # A tibble: 500 x 4
             x1     x2     x3     x4
          <dbl>  <dbl>  <dbl>  <dbl>
       1  2.64   1.98  -2.29  -0.543
       2 -1.28  -2.29   2.56   2.06 
       3 -2.58   1.58  -2.60  -2.39 
       4  2.57   0.775  0.428  4.20 
       5  0.755 -1.47   2.52   2.05 
       6 -0.308  1.86  -2.22   0.980
       7 -3.06   0.516 -1.25   2.96 
       8  0.781 -0.472 -0.191  1.23 
       9 -0.929  0.730 -2.60   1.14 
      10  5.96  -1.26   2.23   0.355
      # i 490 more rows

# randomize_rows() works

    Code
      randomize_rows(mobiusgau)
    Output
      # A tibble: 1,000 x 4
              x1     x2       x3       x4
           <dbl>  <dbl>    <dbl>    <dbl>
       1 -0.727  -0.279 -0.182    0.00549
       2  0.469  -0.863 -0.138    0.0171 
       3  0.994  -0.172 -0.0132   0.0122 
       4  0.937   0.323  0.0532  -0.0325 
       5 -0.0671 -0.614  0.140    0.00120
       6 -0.749   0.117  0.191    0.0369 
       7  0.0209 -0.790 -0.0441   0.0959 
       8  0.687   0.220  0.00900 -0.0259 
       9  0.746   0.146  0.0135   0.0184 
      10  0.586  -0.211  0.0302  -0.0626 
      # i 990 more rows
…
# gen_nsum() works

    Code
      gen_nsum(30, 3)
    Output
      [1] 10 10 10

# gen_wavydims1() works

    Code
      gen_wavydims1(n = 500, p = 4, theta = seq(pi / 6, 12 * pi / 6, length.out = 500))
    Message
      v Wavy shaped noise dimensions generation completed successfully!!!
    Output
      # A tibble: 500 x 4
              x1    x2      x3    x4
           <dbl> <dbl>   <dbl> <dbl>
       1  0.598   2.11  0.330   1.17
       2  0.419   1.43  0.920   1.30
       3  0.0740  1.80  0.409   2.02
       4  0.683   2.01  0.551   2.39
       5  0.531   2.32  1.29    2.12
       6  1.30    1.96  0.556   2.09
       7  1.23    2.15  0.937   2.08
       8 -0.330   1.72  1.47    1.79
       9  1.29    1.78  0.695   2.56
      10 -0.125   2.62 -0.0498  1.75
      # i 490 more rows

# gen_wavydims2() works

    Code
      gen_wavydims2(n = 500, p = 4, x1_vec = x1)
    Message
      v Wavy shaped noise dimensions generation completed successfully!!!
    Output
      # A tibble: 500 x 4
                x1        x2       x3       x4
             <dbl>     <dbl>    <dbl>    <dbl>
       1  0.000910  0.0185    0.0143  -0.0331 
       2 -0.00919  -0.00517   0.0170   0.0629 
       3  0.0186    0.00205  -0.00405 -0.00339
       4  0.0222    0.0312    0.00931 -0.00348
       5  0.00516   0.0139    0.00406 -0.00304
       6  0.0123    0.0238    0.00255  0.0591 
       7  0.00881   0.0309    0.00899  0.0691 
       8  0.00412   0.00188   0.0107  -0.0226 
       9  0.00292  -0.00113   0.0154   0.0264 
      10 -0.0106   -0.000241 -0.00240  0.0336 
      # i 490 more rows

# gen_wavydims3() works

    Code
      gen_wavydims3(n = 500, p = 4, data = df)
    Message
      v Wavy shaped noise dimensions generation completed successfully!!!
    Output
      # A tibble: 500 x 4
             x1    x2      x3    x4
          <dbl> <dbl>   <dbl> <dbl>
       1 -0.627 0.795 -1.78       0
       2  0.602 1.48  -0.217      0
       3 -0.780 0.346  1.64       0
       4 -0.968 1.19   0.791      0
       5  0.607 1.61   1.79       0
       6  0.237 0.703 -1.97       0
       7 -0.589 1.38  -1.80       0
       8 -0.325 0.476  0.0497     0
       9  0.978 0.735 -0.809      0
      10  0.532 1.85  -0.156      0
      # i 490 more rows
…
    Code
      gen_clustloc(p = 4, k = 3)
    Output
                 [,1]       [,2]        [,3]
      [1,]  1.8727238 -0.7444274 -1.12829641
      [2,] -0.9968225  0.9259866  0.07083593
      [3,]  0.7820890 -0.1252220 -0.65686699
      [4,]  1.5232486 -0.4366755 -1.08657315

# gen_hole() works

    Code
      gen_hole(scurve_data, r = 0.5)
    Output
      # A tibble: 970 x 3
             x1    x2      x3
          <dbl> <dbl>   <dbl>
       1 -0.634 1.68  -1.77  
       2  0.610 0.171 -0.207 
       3 -0.773 0.252  1.63  
       4 -0.976 1.81   0.782 
       5  0.602 1.57   1.80  
       6  0.234 1.29  -1.97  
       7 -0.592 1.30  -1.81  
       8 -0.319 0.411  0.0522
       9  0.983 0.463 -0.817 
      10  0.527 1.49  -0.150 
      # i 960 more rows
