Randomize Rows of a Data Frame — randomize_rows • cardinalR
…
randomize_rows(data)

    Arguments

data
A data frame to be randomized.

    Value

    A data frame with rows randomly shuffled.

    Examples

randomize_rows(mobius_clust_data)
#> # A tibble: 600 × 4
#>          x1      x2       x3       x4
#>       <dbl>   <dbl>    <dbl>    <dbl>
#>  1  0.740    0.0162 -0.00285 -0.0398 
#>  2  0.177    1.17    0.160    0.0114 
#>  3 -0.882   -0.490  -0.0340  -0.0338 
#>  4  0.705   -0.127   0.0253   0.0988 
#>  5  0.813    0.907   0.0976  -0.104  
#>  6 -0.605   -0.932  -0.204    0.0231 
#>  7  1.02    -0.739  -0.0843   0.0296 
#>  8  0.743    0.798   0.0393   0.0155 
#>  9 -1.01     0.112   0.217   -0.0528 
#> 10 -0.00991 -0.751   0.252   -0.00661
#> # ℹ 590 more rows
…
